06 - Classification
…
---
# Generate Predictions

To generate predictions, we can use the `augment()` function from the `{broom}` package. It augments the original dataframe with fitted values and standard errors:

```r
covid_pred <- 
  logit_model %>% 
  augment(type.predict = "response")

covid_pred
```

```
## # A tibble: 107,542 x 14
##    coron~1 cough fever sore_~2 short~3 head_~4 age_6~5 gender .fitted .resid .std.~6    .hat .sigma
##    <fct>   <fct> <fct> <fct>   <fct>   <fct>   <fct>   <fct>    <dbl>  <dbl>   <dbl>   <dbl>  <dbl>
##  1 negati~ 1     0     0       0       0       No      male    0.0709 -0.383  -0.383 8.63e-5  0.621
##  2 negati~ 1     1     0       0       0       No      male    0.342  -0.916  -0.916 1.99e-4  0.621
##  3 negati~ 0     1     0       0       0       Yes     male    0.287  -0.822  -0.823 4.50e-4  0.621
##  4 positi~ 1     1     0       0       0       Yes     male    0.437   1.29    1.29  4.03e-4  0.621
##  5 negati~ 1     0     0       0       0       Yes     female  0.0770 -0.400  -0.400 1.55e-4  0.621
##  6 positi~ 1     1     0       0       0       Yes     male    0.437   1.29    1.29  4.03e-4  0.621
##  7 negati~ 0     0     0       0       0       No      male    0.0381 -0.279  -0.279 1.84e-5  0.621
##  8 negati~ 1     1     1       0       1       No      female  1.00   -4.19   -4.19  5.26e-6  0.621
##  9 negati~ 1     0     1       0       0       No      female  0.817  -1.84   -1.85  2.18e-3  0.621
## 10 negati~ 1     1     1       1       0       No      female  1.00   -3.91   -3.91  1.65e-5  0.621
## # ... with 107,532 more rows, 1 more variable: .cooksd <dbl>, and abbreviated variable names
## #   1: corona_result, 2: sore_throat, 3: shortness_of_breath, 4: head_ache, 5: age_60_and_above,
## #   6: .std.resid
```
…
```r
covid_pred <- logit_model %>% 
  augment(type.predict = "response") %>% 
  mutate(                                                                 
*   .fitted_class = if_else(.fitted < class_rule, "negative", "positive"),
    .fitted_class = as_factor(.fitted_class)                              
  ) %>%                                                                    
  select(corona_result, .fitted, .fitted_class)

covid_pred
```

```
## # A tibble: 107,542 x 3
##    corona_result .fitted .fitted_class
##    <fct>           <dbl> <fct>        
##  1 negative       0.0709 negative     
##  2 negative       0.342  negative     
##  3 negative       0.287  negative     
##  4 positive       0.437  negative     
##  5 negative       0.0770 negative     
##  6 positive       0.437  negative     
##  7 negative       0.0381 negative     
##  8 negative       1.00   positive     
##  9 negative       0.817  positive     
## 10 negative       1.00   positive     
## # ... with 107,532 more rows
```
…
---
# Tidying the Data with `pivot_longer`

The code chunk below uses the `pivot_longer()` function from the `{tidyr}` package. This function *transforms the data* from wide to long format, preparing it for later plotting:

```r
fgl_long <- 
  fgl_wide %>% 
  pivot_longer(-type, names_to = "feature", values_to = "value")

fgl_long
```

```
## # A tibble: 1,926 x 3
##    type  feature  value
##    <fct> <chr>    <dbl>
##  1 WinF  RI       3.01 
##  2 WinF  Na      13.6  
##  3 WinF  Mg       4.49 
##  4 WinF  Al       1.1  
##  5 WinF  Si      71.8  
##  6 WinF  K        0.06 
##  7 WinF  Ca       8.75 
##  8 WinF  Ba       0    
##  9 WinF  Fe       0    
## 10 WinF  RI      -0.390
## # ... with 1,916 more rows
```
…
